{
  "date":"8 March 2025",
  "success": true,
  "data": [
    {
      "spanish": {
        "definition": "Ocurrencias repentinas y breves de algo, a menudo con mucha energía o fuerza.",
        "word": "estallidos"
      },
      "sinonyms": [],
      "_id": "67264c8899d8ea42388da298",
      "word": "bursts",
      "language": "en",
      "definition": "Sudden and brief occurrences of something, often with a lot of energy or force.",
      "examples": [
        "The balloon bursts with a loud pop.",
        "She bursts into laughter at the funny joke.",
        "The dam bursts, causing a flood in the valley.",
        "He bursts into the room with exciting news.",
        "The firework bursts in the sky, lighting up the night."
      ],
      "type": [
        "noun",
        "verb"
      ],
      "IPA": "/bɜrsts/",
      "seen": 1,
      "img": "",
      "level": "B2",
      "codeSwitching": [
        "El globo bursts y todos se asustan.",
        "Ella bursts en lágrimas al escuchar la noticia.",
        "El río bursts sus orillas después de la tormenta.",
        "Él bursts en la habitación con una sonrisa enorme.",
        "El cohete bursts en el aire con colores brillantes."
      ],
      "createdAt": "2024-11-02T16:00:08.071Z",
      "updatedAt": "2024-11-02T16:00:08.071Z",
      "__v": 0
    },
    {
      "spanish": {
        "definition": "La obligación de aceptar la responsabilidad por las propias acciones y explicarlas a los demás.",
        "word": "responsabilidad"
      },
      "sinonyms": [],
      "_id": "67264bf199d8ea42388da295",
      "word": "accountability",
      "language": "en",
      "definition": "The obligation to accept responsibility for one's actions and to explain them to others.",
      "examples": [
        "The manager emphasized the importance of accountability in the workplace.",
        "Public officials must have accountability to the citizens they serve.",
        "The team leader took accountability for the project's failure.",
        "Accountability is crucial in maintaining trust within a team.",
        "The company implemented new policies to ensure greater accountability."
      ],
      "type": [
        "noun"
      ],
      "IPA": "/əˌkaʊn.təˈbɪl.ə.ti/",
      "seen": 1,
      "img": "",
      "level": "B2",
      "codeSwitching": [
        "La accountability es esencial para el éxito de cualquier organización.",
        "Necesitamos más accountability en el gobierno para evitar la corrupción.",
        "La falta de accountability puede llevar a problemas serios en el equipo.",
        "Es importante que cada miembro del equipo tenga accountability por sus tareas.",
        "La accountability ayuda a mejorar la transparencia en las operaciones."
      ],
      "createdAt": "2024-11-02T15:57:37.424Z",
      "updatedAt": "2024-11-02T15:57:37.424Z",
      "__v": 0
    },
    {
      "spanish": {
        "definition": "El acto de comer más comida de la que el cuerpo necesita, a menudo causando incomodidad o problemas de salud.",
        "word": "comer en exceso"
      },
      "sinonyms": [],
      "_id": "672648eb99d8ea42388da292",
      "word": "overeating",
      "language": "en",
      "definition": "The act of eating more food than the body needs, often leading to discomfort or health issues.",
      "examples": [
        "Overeating during the holidays is a common problem for many people.",
        "He realized that his overeating was affecting his health negatively.",
        "Stress can sometimes lead to overeating as a coping mechanism.",
        "She tried to avoid overeating by eating smaller portions.",
        "Overeating can lead to weight gain and other health problems."
      ],
      "type": [
        "noun"
      ],
      "IPA": "/ˌoʊvərˈiːtɪŋ/",
      "seen": 1,
      "img": "",
      "level": "B2",
      "codeSwitching": [
        "Durante las fiestas, el overeating es un problema común.",
        "Se dio cuenta de que el overeating estaba afectando su salud.",
        "El estrés a veces lleva al overeating como mecanismo de afrontamiento.",
        "Intentó evitar el overeating comiendo porciones más pequeñas.",
        "El overeating puede llevar al aumento de peso y otros problemas de salud."
      ],
      "createdAt": "2024-11-02T15:44:43.765Z",
      "updatedAt": "2024-11-02T15:44:43.765Z",
      "__v": 0
    },
    {
      "spanish": {
        "definition": "La probabilidad de que algo suceda.",
        "word": "probabilidad"
      },
      "sinonyms": [],
      "_id": "672648c599d8ea42388da28f",
      "word": "likelihood",
      "language": "en",
      "definition": "The chance that something will happen; probability.",
      "examples": [
        "There is a high likelihood of rain tomorrow.",
        "The likelihood of winning the lottery is very low.",
        "In all likelihood, she will arrive by noon.",
        "The likelihood of success increases with careful planning.",
        "Given the evidence, the likelihood of his guilt is high."
      ],
      "type": [
        "noun"
      ],
      "IPA": "/ˈlaɪk.liˌhʊd/",
      "seen": 1,
      "img": "",
      "level": "B2",
      "codeSwitching": [
        "La likelihood de que llueva mañana es alta.",
        "En este caso, la likelihood de éxito es bastante buena.",
        "La likelihood de que él llegue tarde es baja.",
        "Con estos datos, la likelihood de un error es mínima.",
        "La likelihood de que el proyecto se complete a tiempo es alta."
      ],
      "createdAt": "2024-11-02T15:44:05.407Z",
      "updatedAt": "2024-11-02T15:44:05.407Z",
      "__v": 0
    },
    {
      "spanish": {
        "definition": "Ayuda o apoyo dado a alguien, a menudo en forma de dinero, recursos o asistencia.",
        "word": "ayuda"
      },
      "sinonyms": [],
      "_id": "6726480399d8ea42388da28c",
      "word": "aid",
      "language": "en",
      "definition": "Help or support given to someone, often in the form of money, resources, or assistance.",
      "examples": [
        "The charity provides aid to families in need.",
        "International aid was sent to the region after the earthquake.",
        "She received financial aid to help pay for her education.",
        "The organization offers medical aid to remote villages.",
        "Volunteers are crucial in delivering aid during natural disasters."
      ],
      "type": [
        "noun",
        "verb"
      ],
      "IPA": "/eɪd/",
      "seen": 1,
      "img": "",
      "level": "B2",
      "codeSwitching": [
        "Recibimos aid internacional después del huracán.",
        "La organización está buscando voluntarios para distribuir aid.",
        "Necesitamos más aid para completar el proyecto.",
        "El gobierno prometió aid para los afectados por la inundación.",
        "La comunidad se unió para proporcionar aid a los necesitados."
      ],
      "createdAt": "2024-11-02T15:40:51.610Z",
      "updatedAt": "2024-11-02T15:40:51.610Z",
      "__v": 0
    },
    {
      "spanish": {
        "definition": "La cantidad de algo, como comida o bebida, que se ingiere en el cuerpo.",
        "word": "ingesta"
      },
      "sinonyms": [],
      "_id": "672647ab99d8ea42388da289",
      "word": "intake",
      "language": "en",
      "definition": "The amount of something, such as food or drink, that is taken into the body.",
      "examples": [
        "It's important to monitor your daily intake of calories.",
        "The doctor advised him to reduce his salt intake.",
        "She increased her water intake during the summer months.",
        "The athlete carefully manages his protein intake for optimal performance.",
        "Parents should be aware of their children's sugar intake."
      ],
      "type": [
        "noun"
      ],
      "IPA": "/ˈɪn.teɪk/",
      "seen": 1,
      "img": "",
      "level": "B2",
      "codeSwitching": [
        "Es crucial controlar el intake de calorías diariamente.",
        "El médico le recomendó reducir su intake de sal.",
        "Ella aumentó su intake de agua durante el verano.",
        "El atleta gestiona cuidadosamente su intake de proteínas.",
        "Los padres deben estar atentos al intake de azúcar de sus hijos."
      ],
      "createdAt": "2024-11-02T15:39:23.552Z",
      "updatedAt": "2024-11-02T15:39:23.552Z",
      "__v": 0
    },
    {
      "spanish": {
        "definition": "Pequeños frutos secos con cáscara dura y un núcleo comestible, o jerga para estar loco o muy entusiasta.",
        "word": "nueces"
      },
      "sinonyms": [],
      "_id": "6726465f99d8ea42388da285",
      "word": "nuts",
      "language": "en",
      "definition": "Small hard-shelled dry fruits or seeds with an edible kernel, or slang for being crazy or very enthusiastic.",
      "examples": [
        "I always keep a bag of mixed nuts in my desk for a healthy snack.",
        "He's absolutely nuts about football and never misses a game.",
        "The recipe calls for a cup of chopped nuts.",
        "She went nuts when she heard the good news.",
        "Nuts are a great source of protein and healthy fats."
      ],
      "type": [
        "noun",
        "adjective"
      ],
      "IPA": "/nʌts/",
      "seen": 1,
      "img": "",
      "level": "B2",
      "codeSwitching": [
        "Siempre llevo nuts en mi mochila para cuando tengo hambre.",
        "Está completamente nuts por la música de los años 80.",
        "Añadí algunos nuts a la ensalada para darle más sabor.",
        "Se volvió nuts cuando ganó la lotería.",
        "Los nuts son una excelente fuente de energía durante el día."
      ],
      "createdAt": "2024-11-02T15:33:51.726Z",
      "updatedAt": "2024-11-02T15:33:51.726Z",
      "__v": 0
    },
    {
      "spanish": {
        "definition": "Desventajas o aspectos negativos de una situación o plan.",
        "word": "inconvenientes"
      },
      "sinonyms": [],
      "_id": "6725b74899d8ea42388da25d",
      "word": "drawbacks",
      "language": "en",
      "definition": "Disadvantages or negative aspects of a situation or plan.",
      "examples": [
        "One of the drawbacks of working from home is the lack of social interaction.",
        "The new policy has several drawbacks that need to be addressed.",
        "Despite its benefits, the proposal has some significant drawbacks.",
        "The main drawback of this phone is its short battery life.",
        "There are drawbacks to living in a big city, such as noise and pollution."
      ],
      "type": [
        "noun"
      ],
      "IPA": "/ˈdrɔːˌbæks/",
      "seen": 1,
      "img": "",
      "level": "B2",
      "codeSwitching": [
        "El proyecto tiene algunos drawbacks que debemos considerar.",
        "Aunque es una buena idea, hay varios drawbacks que podrían surgir.",
        "Los drawbacks de este plan son evidentes para todos.",
        "Necesitamos evaluar los drawbacks antes de tomar una decisión.",
        "Los drawbacks de vivir en el campo incluyen la falta de servicios."
      ],
      "createdAt": "2024-11-02T05:23:20.564Z",
      "updatedAt": "2024-11-02T05:23:20.564Z",
      "__v": 0
    },
    {
      "spanish": {
        "definition": "La posición o lugar más importante o destacado en un campo o actividad particular.",
        "word": "vanguardia"
      },
      "sinonyms": [],
      "_id": "6725b6f399d8ea42388da25a",
      "word": "forefront",
      "language": "en",
      "definition": "The leading or most important position or place in a particular field or activity.",
      "examples": [
        "The company is at the forefront of technological innovation.",
        "She has been at the forefront of the campaign for equal rights.",
        "Environmental issues are at the forefront of the political agenda.",
        "The scientist is at the forefront of cancer research.",
        "The artist's work is at the forefront of contemporary art."
      ],
      "type": [
        "noun"
      ],
      "IPA": "/ˈfɔːr.frʌnt/",
      "seen": 1,
      "img": "",
      "level": "B2",
      "codeSwitching": [
        "La empresa está en el forefront de la innovación tecnológica.",
        "Ella ha estado en el forefront de la campaña por los derechos iguales.",
        "Los problemas ambientales están en el forefront de la agenda política.",
        "El científico está en el forefront de la investigación sobre el cáncer.",
        "El trabajo del artista está en el forefront del arte contemporáneo."
      ],
      "createdAt": "2024-11-02T05:21:55.660Z",
      "updatedAt": "2024-11-02T05:21:55.660Z",
      "__v": 0
    },
    {
      "spanish": {
        "definition": "De una manera que es claramente verdadera o cierta, y no puede ser negada.",
        "word": "indudablemente"
      },
      "sinonyms": [],
      "_id": "6725b62f99d8ea42388da257",
      "word": "undeniably",
      "language": "en",
      "definition": "In a way that is clearly true or certain, and cannot be denied.",
      "examples": [
        "The movie was undeniably a huge success at the box office.",
        "She is undeniably talented in her field of work.",
        "The evidence was undeniably in his favor.",
        "His performance was undeniably the best of the evening.",
        "The city is undeniably beautiful, especially in the spring."
      ],
      "type": [
        "adverb"
      ],
      "IPA": "/ˌʌn.dɪˈnaɪ.ə.bli/",
      "seen": 1,
      "img": "",
      "level": "B2",
      "codeSwitching": [
        "Es undeniably cierto que ella es la mejor en su clase.",
        "La comida en ese restaurante es undeniably deliciosa.",
        "El clima hoy es undeniably perfecto para un picnic.",
        "Su éxito es undeniably el resultado de su arduo trabajo.",
        "La vista desde la cima de la montaña es undeniably impresionante."
      ],
      "createdAt": "2024-11-02T05:18:39.840Z",
      "updatedAt": "2024-11-02T05:18:39.840Z",
      "__v": 0
    }
  ],
  "pagination": {
    "total": 49,
    "page": 1,
    "pages": 5
  }
}